{
  "iisSettings": {
    "windowsAuthentication": false,
    "anonymousAuthentication": true,
    "iisExpress": {
      "applicationUrl": "http://localhost:49578",
      "sslPort": 44388
    }
  },
  "profiles": {
    "Presentation.Api": {
      "commandName": "Project",
      "launchBrowser": true,
      "environmentVariables": {
        "ASPNETCORE_ENVIRONMENT": "Development",
        "SQL_HOST": "localhost",
        "SQL_PORT": "1433",
        "SQL_DATABASE": "Logger",
        "SQL_USER": "sa",
        "SQL_PASSWORD": "AP1r0nt1",
        "CONFIG_FILE_LOG_NAME": "LogFile-{date}.txt",
        "CONFIG_FILE_LOG_PATH": "C:/Logs/",
        "REDIS_HOST": "localhost",
        "REDIS_PORT": "6379",
        "REDIS_INSTANCE": "redis-instance"
      },
      "applicationUrl": "http://localhost:5000"
    }
  }
}